{
  "uuid":"",
  "details":{
    "date":"",
    "time":"",
    "duration":"",
    "collectors":[
      {"staff_id":"12","name":"Jane Blogs","status":"ACCEPTED"}
    ],
    "volume":{"min":0,"max":99,"expected":400}
  },
  "progress":[
    {
      "collector_id":"",
      "reviewed":{"date":"", "time":""},
      "communication":{"date":"", "time":""},
      "arrival":{"date":"", "time":""},
      "checks":{"date":"", "time":""},
      "testing":{"date":"", "time":""},
      "signoff":{"date":"", "time":""}
    }
  ],
  "client":{
    "organisation":{
      "uuid":"",
      "name":"",
      "address":""
    },
    "site":{
      "uuid":""
    }
  },
  "equipment":[
    {}
  ],
  "communications":{
    "onprepare":[
      {"name":"Richard Hawkins","phone":"","mobile":"","instructions":"Contact before you leave","attempts":[{"result":"","notes":"","date":"", "time":"","collector_id":""}]}
    ],
    "ondeparture":[
      {"name":"Richard Hawkins","phone":"","mobile":"","instructions":"Contact before you leave","attempts":[{"result":"","notes":"","date":"", "time":"","collector_id":""}]}
    ],
    "onarrival":[
      {"name":"Richard Hawkins","phone":"","mobile":"","instructions":"Contact before you leave","attempts":[{"result":"","notes":"","date":"", "time":"","collector_id":""}]}
    ],
    "onpositive":[
      {"name":"Richard Hawkins","phone":"","mobile":"","instructions":"Contact before you leave","attempts":[{"result":"","notes":"","date":"", "time":"","collector_id":""}]}
    ],
    "oncompletion":[
      {"name":"Richard Hawkins","phone":"","mobile":"","instructions":"Contact before you leave","attempts":[{"result":"","notes":"","date":"", "time":"","collector_id":""}]}
    ]
  },
  "prestart":[
    {"description":"do something","type":"environmental","conducts":[{"result":"","notes":"","date":"", "time":"","collector_id":""}]},
    {"description":"do something","type":"security","conducts":[{"result":"","notes":"","date":"", "time":"","collector_id":""}]},
    {"description":"do something","type":"equipment","conducts":[{"result":"","notes":"","date":"", "time":"","collector_id":""}]}
  ],
  "hazards":[
    {"collector_id":"", "date":"", "time":"", "score":"high", "severity":"extreme", "concerns":[]}
  ],
  "events":[
    {
      "_id":"",
      "type":"",
      "uuid":"",
      "collector_id":"",
      "status":{"started":{"date":"", "time":""},"ended":{"date":"", "time":""},"reason":"","completed":false},
      "donor":{"first_name":"","surname":"","dob":"","employee_num":"","type":"","details":""},
      "identification":{
        "sighted":true,"type":"","notes":""
      },
      "medicines":[
        {"code":"","name":"","taken_amt":"","last_taken":"","reaction":false}
      ],
      "consent":{"date":"", "time":"", "signature":""},
      "testing":[
        {
          "uuid":"",
          "type":"alcohol",
          "category":"active",
          "date":"",
          "time":"",
          "readings":{},
          "evidence":[],
          "equipment":[],
          "kit":{},
          "sample":{
            "security_seals":["ERERR","TTDFF"],
            "donor":{
              "statement":"",
              "signature":"base64"
            },
            "collector":{
              "statement":"",
              "signature":"base64"
            }
          }
        }
      ]
    }
  ],
  "incidents":[
    {"uuid":"","type":"","priority":"","details":{},"status":{},"collector_id":""}
  ],
  "travel":{
    "commencement":[{"collector_id":""}],
    "arrival":[{"collector_id":""}],
    "departure":[{"collector_id":""}],
    "logs":[]
  }
}